[
  {
    "description": "    tests:\n    1. users can checkout successfully\n    2. amount of money on order summary is correct",
    "elements": [
      {
        "description": "",
        "id": "ec-process;bqe-eu-ec-order-process---guest-checkout",
        "keyword": "Scenario",
        "line": 5,
        "name": "BQE EU EC Order Process - Guest Checkout",
        "steps": [
          {
            "keyword": "Before",
            "hidden": true,
            "result": {
              "status": "passed",
              "duration": 1963708799
            }
          },
          {
            "arguments": [],
            "keyword": "Given ",
            "line": 6,
            "name": "[EN-EU Guest]Go to Product Page",
            "match": {
              "location": "features\\support\\steps.js:23"
            },
            "result": {
              "status": "passed",
              "duration": 37274163499
            }
          },
          {
            "arguments": [],
            "keyword": "When ",
            "line": 7,
            "name": "[EN-EU Guest]Cart Page",
            "match": {
              "location": "features\\support\\steps.js:35"
            },
            "result": {
              "status": "passed",
              "duration": 30917424499
            }
          },
          {
            "arguments": [],
            "keyword": "And ",
            "line": 8,
            "name": "[EN-EU Guest]Shipping Page",
            "match": {
              "location": "features\\support\\steps.js:54"
            },
            "result": {
              "status": "passed",
              "duration": 79047135100
            }
          },
          {
            "arguments": [],
            "keyword": "Then ",
            "line": 9,
            "name": "[EN-EU Guest]Payment Page",
            "match": {
              "location": "features\\support\\steps.js:143"
            },
            "result": {
              "status": "passed",
              "duration": 20044104299
            }
          },
          {
            "keyword": "After",
            "hidden": true,
            "result": {
              "status": "passed",
              "duration": 178859500
            }
          }
        ],
        "tags": [],
        "type": "scenario"
      }
    ],
    "id": "ec-process",
    "line": 1,
    "keyword": "Feature",
    "name": "EC Process",
    "tags": [],
    "uri": "features\\test.feature"
  }
]